%YAML 1.1
%TAG !u! tag:unity3d.com,2011:
--- !u!74 &7400000
AnimationClip:
  m_ObjectHideFlags: 0
  m_CorrespondingSourceObject: {fileID: 0}
  m_PrefabInstance: {fileID: 0}
  m_PrefabAsset: {fileID: 0}
  m_Name: Weapon_Special_Strike
  serializedVersion: 6
  m_Legacy: 0
  m_Compressed: 0
  m_UseHighQualityCurve: 1
  m_RotationCurves: []
  m_CompressedRotationCurves: []
  m_EulerCurves: []
  m_PositionCurves: []
  m_ScaleCurves: []
  m_FloatCurves: []
  m_PPtrCurves:
  - curve:
    - time: 0
      value: {fileID: 21300000, guid: 565aac9264e3bbf4080f9062874c048e, type: 3}
    - time: 0.041666668
      value: {fileID: 21300000, guid: 36ca14584b088424f84bf99b26975670, type: 3}
    - time: 0.083333336
      value: {fileID: 21300000, guid: 9877f57885b789b41908f043ed3e9765, type: 3}
    - time: 0.125
      value: {fileID: 21300000, guid: 03220cf7b80452b4298b7a7e95c92c73, type: 3}
    - time: 0.16666667
      value: {fileID: 21300000, guid: 88c50b2b6f5f0c74baad02fec5ea804f, type: 3}
    - time: 0.20833333
      value: {fileID: 21300000, guid: 4d94748bfd0ead14c9ab25d5b64861df, type: 3}
    - time: 0.25
      value: {fileID: 21300000, guid: eef75e1a39c29404aa5dd8119c548739, type: 3}
    - time: 0.29166666
      value: {fileID: 21300000, guid: 6bd36eab90bbd9c498bbc102503508a4, type: 3}
    - time: 0.33333334
      value: {fileID: 21300000, guid: 63f7ab22984a4f14fb75a02a3797d524, type: 3}
    - time: 0.375
      value: {fileID: 21300000, guid: 0bff040dabf0f4f46a4d2bc7445ce1c9, type: 3}
    - time: 0.41666666
      value: {fileID: 21300000, guid: c0753bcf725101f44bb4130229cea99b, type: 3}
    - time: 0.45833334
      value: {fileID: 21300000, guid: c0753bcf725101f44bb4130229cea99b, type: 3}
    - time: 0.5
      value: {fileID: 21300000, guid: 65eebcc1ee5a7524eac76ba2903ca596, type: 3}
    - time: 0.5416667
      value: {fileID: 21300000, guid: 744e8e49436254244b766a86c952be08, type: 3}
    - time: 0.5833333
      value: {fileID: 21300000, guid: 66e3aa5eef64cdb4195ee435f14fa84e, type: 3}
    attribute: m_Sprite
    path: Weapon
    classID: 212
    script: {fileID: 0}
  m_SampleRate: 24
  m_WrapMode: 0
  m_Bounds:
    m_Center: {x: 0, y: 0, z: 0}
    m_Extent: {x: 0, y: 0, z: 0}
  m_ClipBindingConstant:
    genericBindings:
    - serializedVersion: 2
      path: 1855955664
      attribute: 0
      script: {fileID: 0}
      typeID: 212
      customType: 23
      isPPtrCurve: 1
    pptrCurveMapping:
    - {fileID: 21300000, guid: 565aac9264e3bbf4080f9062874c048e, type: 3}
    - {fileID: 21300000, guid: 36ca14584b088424f84bf99b26975670, type: 3}
    - {fileID: 21300000, guid: 9877f57885b789b41908f043ed3e9765, type: 3}
    - {fileID: 21300000, guid: 03220cf7b80452b4298b7a7e95c92c73, type: 3}
    - {fileID: 21300000, guid: 88c50b2b6f5f0c74baad02fec5ea804f, type: 3}
    - {fileID: 21300000, guid: 4d94748bfd0ead14c9ab25d5b64861df, type: 3}
    - {fileID: 21300000, guid: eef75e1a39c29404aa5dd8119c548739, type: 3}
    - {fileID: 21300000, guid: 6bd36eab90bbd9c498bbc102503508a4, type: 3}
    - {fileID: 21300000, guid: 63f7ab22984a4f14fb75a02a3797d524, type: 3}
    - {fileID: 21300000, guid: 0bff040dabf0f4f46a4d2bc7445ce1c9, type: 3}
    - {fileID: 21300000, guid: c0753bcf725101f44bb4130229cea99b, type: 3}
    - {fileID: 21300000, guid: c0753bcf725101f44bb4130229cea99b, type: 3}
    - {fileID: 21300000, guid: 65eebcc1ee5a7524eac76ba2903ca596, type: 3}
    - {fileID: 21300000, guid: 744e8e49436254244b766a86c952be08, type: 3}
    - {fileID: 21300000, guid: 66e3aa5eef64cdb4195ee435f14fa84e, type: 3}
  m_AnimationClipSettings:
    serializedVersion: 2
    m_AdditiveReferencePoseClip: {fileID: 0}
    m_AdditiveReferencePoseTime: 0
    m_StartTime: 0
    m_StopTime: 0.625
    m_OrientationOffsetY: 0
    m_Level: 0
    m_CycleOffset: 0
    m_HasAdditiveReferencePose: 0
    m_LoopTime: 0
    m_LoopBlend: 0
    m_LoopBlendOrientation: 0
    m_LoopBlendPositionY: 0
    m_LoopBlendPositionXZ: 0
    m_KeepOriginalOrientation: 0
    m_KeepOriginalPositionY: 1
    m_KeepOriginalPositionXZ: 0
    m_HeightFromFeet: 0
    m_Mirror: 0
  m_EditorCurves: []
  m_EulerEditorCurves: []
  m_HasGenericRootTransform: 0
  m_HasMotionFloatCurves: 0
  m_Events: []
