%YAML 1.1
%TAG !u! tag:unity3d.com,2011:
--- !u!1 &2734134113636034414
GameObject:
  m_ObjectHideFlags: 0
  m_CorrespondingSourceObject: {fileID: 0}
  m_PrefabInstance: {fileID: 0}
  m_PrefabAsset: {fileID: 0}
  serializedVersion: 6
  m_Component:
  - component: {fileID: 2734134113636034387}
  - component: {fileID: 2734134113636034412}
  - component: {fileID: 3480484812268830992}
  - component: {fileID: 2734134113636034413}
  m_Layer: 0
  m_Name: BaseAvatar
  m_TagString: Untagged
  m_Icon: {fileID: 0}
  m_NavMeshLayer: 0
  m_StaticEditorFlags: 0
  m_IsActive: 1
--- !u!4 &2734134113636034387
Transform:
  m_ObjectHideFlags: 0
  m_CorrespondingSourceObject: {fileID: 0}
  m_PrefabInstance: {fileID: 0}
  m_PrefabAsset: {fileID: 0}
  m_GameObject: {fileID: 2734134113636034414}
  m_LocalRotation: {x: 0, y: 0, z: 0, w: 1}
  m_LocalPosition: {x: 0, y: 0, z: 0}
  m_LocalScale: {x: 1, y: 1, z: 1}
  m_Children: []
  m_Father: {fileID: 0}
  m_RootOrder: 0
  m_LocalEulerAnglesHint: {x: 0, y: 0, z: 0}
--- !u!212 &2734134113636034412
SpriteRenderer:
  m_ObjectHideFlags: 0
  m_CorrespondingSourceObject: {fileID: 0}
  m_PrefabInstance: {fileID: 0}
  m_PrefabAsset: {fileID: 0}
  m_GameObject: {fileID: 2734134113636034414}
  m_Enabled: 1
  m_CastShadows: 0
  m_ReceiveShadows: 0
  m_DynamicOccludee: 1
  m_MotionVectors: 1
  m_LightProbeUsage: 1
  m_ReflectionProbeUsage: 1
  m_RenderingLayerMask: 1
  m_RendererPriority: 0
  m_Materials:
  - {fileID: 10754, guid: 0000000000000000f000000000000000, type: 0}
  m_StaticBatchInfo:
    firstSubMesh: 0
    subMeshCount: 0
  m_StaticBatchRoot: {fileID: 0}
  m_ProbeAnchor: {fileID: 0}
  m_LightProbeVolumeOverride: {fileID: 0}
  m_ScaleInLightmap: 1
  m_PreserveUVs: 0
  m_IgnoreNormalsForChartDetection: 0
  m_ImportantGI: 0
  m_StitchLightmapSeams: 1
  m_SelectedEditorRenderState: 0
  m_MinimumChartSize: 4
  m_AutoUVMaxDistance: 0.5
  m_AutoUVMaxAngle: 89
  m_LightmapParameters: {fileID: 0}
  m_SortingLayerID: 0
  m_SortingLayer: 0
  m_SortingOrder: 0
  m_Sprite: {fileID: 0}
  m_Color: {r: 1, g: 1, b: 1, a: 1}
  m_FlipX: 0
  m_FlipY: 0
  m_DrawMode: 0
  m_Size: {x: 1, y: 1}
  m_AdaptiveModeThreshold: 0.5
  m_SpriteTileMode: 0
  m_WasSpriteAssigned: 0
  m_MaskInteraction: 0
  m_SpriteSortPoint: 0
--- !u!114 &3480484812268830992
MonoBehaviour:
  m_ObjectHideFlags: 0
  m_CorrespondingSourceObject: {fileID: 0}
  m_PrefabInstance: {fileID: 0}
  m_PrefabAsset: {fileID: 0}
  m_GameObject: {fileID: 2734134113636034414}
  m_Enabled: 1
  m_EditorHideFlags: 0
  m_Script: {fileID: 11500000, guid: ca75629a9c00fc64ba118543d45341de, type: 3}
  m_Name: 
  m_EditorClassIdentifier: 
--- !u!114 &2734134113636034413
MonoBehaviour:
  m_ObjectHideFlags: 0
  m_CorrespondingSourceObject: {fileID: 0}
  m_PrefabInstance: {fileID: 0}
  m_PrefabAsset: {fileID: 0}
  m_GameObject: {fileID: 2734134113636034414}
  m_Enabled: 1
  m_EditorHideFlags: 0
  m_Script: {fileID: 11500000, guid: 62899f850307741f2a39c98a8b639597, type: 3}
  m_Name: 
  m_EditorClassIdentifier: 
  m_Actions: {fileID: -944628639613478452, guid: e7f6ce62c7558d540ba5a03832427a36,
    type: 3}
  m_NotificationBehavior: 0
  m_UIInputModule: {fileID: 0}
  m_DeviceLostEvent:
    m_PersistentCalls:
      m_Calls: []
    m_TypeName: UnityEngine.InputSystem.Plugins.PlayerInput.PlayerInput+DeviceLostEvent,
      Unity.InputSystem, Version=0.2.10.0, Culture=neutral, PublicKeyToken=null
  m_DeviceRegainedEvent:
    m_PersistentCalls:
      m_Calls: []
    m_TypeName: UnityEngine.InputSystem.Plugins.PlayerInput.PlayerInput+DeviceRegainedEvent,
      Unity.InputSystem, Version=0.2.10.0, Culture=neutral, PublicKeyToken=null
  m_ActionEvents:
  - m_PersistentCalls:
      m_Calls: []
    m_TypeName: UnityEngine.InputSystem.Plugins.PlayerInput.PlayerInput+ActionEvent,
      Unity.InputSystem, Version=0.2.10.0, Culture=neutral, PublicKeyToken=null
    m_ActionId: e757441f-4d71-494e-9638-a569b77b0b23
    m_ActionName: Player/Move
  - m_PersistentCalls:
      m_Calls: []
    m_TypeName: UnityEngine.InputSystem.Plugins.PlayerInput.PlayerInput+ActionEvent,
      Unity.InputSystem, Version=0.2.10.0, Culture=neutral, PublicKeyToken=null
    m_ActionId: bb2abcdf-8fcb-4c42-8736-b5d737ca186a
    m_ActionName: Player/Jump
  - m_PersistentCalls:
      m_Calls: []
    m_TypeName: UnityEngine.InputSystem.Plugins.PlayerInput.PlayerInput+ActionEvent,
      Unity.InputSystem, Version=0.2.10.0, Culture=neutral, PublicKeyToken=null
    m_ActionId: 623c72a2-2031-4e2d-9340-23ccbe20d503
    m_ActionName: Player/JumpHold
  - m_PersistentCalls:
      m_Calls: []
    m_TypeName: UnityEngine.InputSystem.Plugins.PlayerInput.PlayerInput+ActionEvent,
      Unity.InputSystem, Version=0.2.10.0, Culture=neutral, PublicKeyToken=null
    m_ActionId: daea4941-737d-4a95-95b4-f47ebbc036be
    m_ActionName: Player/Attack
  - m_PersistentCalls:
      m_Calls: []
    m_TypeName: UnityEngine.InputSystem.Plugins.PlayerInput.PlayerInput+ActionEvent,
      Unity.InputSystem, Version=0.2.10.0, Culture=neutral, PublicKeyToken=null
    m_ActionId: 11f240b5-7d3c-4287-bdbf-e90a050187ae
    m_ActionName: Player/NextWeapon
  - m_PersistentCalls:
      m_Calls: []
    m_TypeName: UnityEngine.InputSystem.Plugins.PlayerInput.PlayerInput+ActionEvent,
      Unity.InputSystem, Version=0.2.10.0, Culture=neutral, PublicKeyToken=null
    m_ActionId: 47f6809f-28ec-45a2-9c31-656af03cf73a
    m_ActionName: Player/PreviousWeapon
  - m_PersistentCalls:
      m_Calls: []
    m_TypeName: UnityEngine.InputSystem.Plugins.PlayerInput.PlayerInput+ActionEvent,
      Unity.InputSystem, Version=0.2.10.0, Culture=neutral, PublicKeyToken=null
    m_ActionId: 749be280-746e-420e-9c28-fd62a1d1fcf3
    m_ActionName: Lobby/Submit
  - m_PersistentCalls:
      m_Calls: []
    m_TypeName: UnityEngine.InputSystem.Plugins.PlayerInput.PlayerInput+ActionEvent,
      Unity.InputSystem, Version=0.2.10.0, Culture=neutral, PublicKeyToken=null
    m_ActionId: 34ce9981-0c6f-4e8d-b918-24f5fc7dc979
    m_ActionName: Lobby/AvatarChoice
  m_AutoSwitchControlScheme: 0
  m_DefaultControlScheme: 
  m_DefaultActionMap: d825ba80-09c0-4f37-8ec0-5648ace2974d
  m_SplitScreenIndex: -1
  m_Camera: {fileID: 0}
