%YAML 1.1
%TAG !u! tag:unity3d.com,2011:
--- !u!74 &7400000
AnimationClip:
  m_ObjectHideFlags: 0
  m_CorrespondingSourceObject: {fileID: 0}
  m_PrefabInstance: {fileID: 0}
  m_PrefabAsset: {fileID: 0}
  m_Name: Weapon_Strike_Air_Up
  serializedVersion: 6
  m_Legacy: 0
  m_Compressed: 0
  m_UseHighQualityCurve: 1
  m_RotationCurves: []
  m_CompressedRotationCurves: []
  m_EulerCurves: []
  m_PositionCurves: []
  m_ScaleCurves: []
  m_FloatCurves: []
  m_PPtrCurves:
  - curve:
    - time: 0
      value: {fileID: 21300000, guid: 244212c1670cb5e468e668640ecc4699, type: 3}
    - time: 0.041666668
      value: {fileID: 21300000, guid: 939b5690c12191d4c8287f12383414fc, type: 3}
    - time: 0.083333336
      value: {fileID: 21300000, guid: 86c05e21b517a7b41a08f59ce1b32da7, type: 3}
    - time: 0.125
      value: {fileID: 21300000, guid: ee92310840cbe79458373eb9a8393cf7, type: 3}
    - time: 0.16666667
      value: {fileID: 21300000, guid: 6655bc3f9fe1fdf48baeeba489590b5a, type: 3}
    - time: 0.20833333
      value: {fileID: 21300000, guid: 17cb39551eabe5e4baa6ac415c1f28a6, type: 3}
    - time: 0.25
      value: {fileID: 21300000, guid: f7d3c300453fc314fbd0eea44900d555, type: 3}
    - time: 0.29166666
      value: {fileID: 21300000, guid: 89edb7272e9e4164a9dff24670b4c66c, type: 3}
    attribute: m_Sprite
    path: Weapon
    classID: 212
    script: {fileID: 0}
  m_SampleRate: 24
  m_WrapMode: 0
  m_Bounds:
    m_Center: {x: 0, y: 0, z: 0}
    m_Extent: {x: 0, y: 0, z: 0}
  m_ClipBindingConstant:
    genericBindings:
    - serializedVersion: 2
      path: 1855955664
      attribute: 0
      script: {fileID: 0}
      typeID: 212
      customType: 23
      isPPtrCurve: 1
    pptrCurveMapping:
    - {fileID: 21300000, guid: 244212c1670cb5e468e668640ecc4699, type: 3}
    - {fileID: 21300000, guid: 939b5690c12191d4c8287f12383414fc, type: 3}
    - {fileID: 21300000, guid: 86c05e21b517a7b41a08f59ce1b32da7, type: 3}
    - {fileID: 21300000, guid: ee92310840cbe79458373eb9a8393cf7, type: 3}
    - {fileID: 21300000, guid: 6655bc3f9fe1fdf48baeeba489590b5a, type: 3}
    - {fileID: 21300000, guid: 17cb39551eabe5e4baa6ac415c1f28a6, type: 3}
    - {fileID: 21300000, guid: f7d3c300453fc314fbd0eea44900d555, type: 3}
    - {fileID: 21300000, guid: 89edb7272e9e4164a9dff24670b4c66c, type: 3}
  m_AnimationClipSettings:
    serializedVersion: 2
    m_AdditiveReferencePoseClip: {fileID: 0}
    m_AdditiveReferencePoseTime: 0
    m_StartTime: 0
    m_StopTime: 0.3333333
    m_OrientationOffsetY: 0
    m_Level: 0
    m_CycleOffset: 0
    m_HasAdditiveReferencePose: 0
    m_LoopTime: 0
    m_LoopBlend: 0
    m_LoopBlendOrientation: 0
    m_LoopBlendPositionY: 0
    m_LoopBlendPositionXZ: 0
    m_KeepOriginalOrientation: 0
    m_KeepOriginalPositionY: 1
    m_KeepOriginalPositionXZ: 0
    m_HeightFromFeet: 0
    m_Mirror: 0
  m_EditorCurves: []
  m_EulerEditorCurves: []
  m_HasGenericRootTransform: 0
  m_HasMotionFloatCurves: 0
  m_Events: []
