%YAML 1.1
%TAG !u! tag:unity3d.com,2011:
--- !u!74 &7400000
AnimationClip:
  m_ObjectHideFlags: 0
  m_CorrespondingSourceObject: {fileID: 0}
  m_PrefabInstance: {fileID: 0}
  m_PrefabAsset: {fileID: 0}
  m_Name: Weapon_Strike_Up
  serializedVersion: 6
  m_Legacy: 0
  m_Compressed: 0
  m_UseHighQualityCurve: 1
  m_RotationCurves: []
  m_CompressedRotationCurves: []
  m_EulerCurves: []
  m_PositionCurves: []
  m_ScaleCurves: []
  m_FloatCurves: []
  m_PPtrCurves:
  - curve:
    - time: 0
      value: {fileID: 21300000, guid: d4a416029474c964596bb587658c873e, type: 3}
    - time: 0.041666668
      value: {fileID: 21300000, guid: d2576bee8c3b901488315aeab4992942, type: 3}
    - time: 0.083333336
      value: {fileID: 21300000, guid: 9b66ac61c5349c2459308a91c22830ff, type: 3}
    - time: 0.125
      value: {fileID: 21300000, guid: 0aaf80504d31a7247a7c96ced5df6b92, type: 3}
    - time: 0.16666667
      value: {fileID: 21300000, guid: 03ab1c39f0bfebf4a8e98696decd2de8, type: 3}
    - time: 0.20833333
      value: {fileID: 21300000, guid: 132885a523cb33e47a234894e039d78e, type: 3}
    - time: 0.25
      value: {fileID: 21300000, guid: e21518a3f91f9b84cb97d8227056cf51, type: 3}
    - time: 0.29166666
      value: {fileID: 21300000, guid: e7302c8a5f8770f40b256fb9370e5242, type: 3}
    attribute: m_Sprite
    path: Weapon
    classID: 212
    script: {fileID: 0}
  m_SampleRate: 24
  m_WrapMode: 0
  m_Bounds:
    m_Center: {x: 0, y: 0, z: 0}
    m_Extent: {x: 0, y: 0, z: 0}
  m_ClipBindingConstant:
    genericBindings:
    - serializedVersion: 2
      path: 1855955664
      attribute: 0
      script: {fileID: 0}
      typeID: 212
      customType: 23
      isPPtrCurve: 1
    pptrCurveMapping:
    - {fileID: 21300000, guid: d4a416029474c964596bb587658c873e, type: 3}
    - {fileID: 21300000, guid: d2576bee8c3b901488315aeab4992942, type: 3}
    - {fileID: 21300000, guid: 9b66ac61c5349c2459308a91c22830ff, type: 3}
    - {fileID: 21300000, guid: 0aaf80504d31a7247a7c96ced5df6b92, type: 3}
    - {fileID: 21300000, guid: 03ab1c39f0bfebf4a8e98696decd2de8, type: 3}
    - {fileID: 21300000, guid: 132885a523cb33e47a234894e039d78e, type: 3}
    - {fileID: 21300000, guid: e21518a3f91f9b84cb97d8227056cf51, type: 3}
    - {fileID: 21300000, guid: e7302c8a5f8770f40b256fb9370e5242, type: 3}
  m_AnimationClipSettings:
    serializedVersion: 2
    m_AdditiveReferencePoseClip: {fileID: 0}
    m_AdditiveReferencePoseTime: 0
    m_StartTime: 0
    m_StopTime: 0.3333333
    m_OrientationOffsetY: 0
    m_Level: 0
    m_CycleOffset: 0
    m_HasAdditiveReferencePose: 0
    m_LoopTime: 0
    m_LoopBlend: 0
    m_LoopBlendOrientation: 0
    m_LoopBlendPositionY: 0
    m_LoopBlendPositionXZ: 0
    m_KeepOriginalOrientation: 0
    m_KeepOriginalPositionY: 1
    m_KeepOriginalPositionXZ: 0
    m_HeightFromFeet: 0
    m_Mirror: 0
  m_EditorCurves: []
  m_EulerEditorCurves: []
  m_HasGenericRootTransform: 0
  m_HasMotionFloatCurves: 0
  m_Events: []
